{"new_entries":{"has_next":false,"page":1,"results":[]},"last_updated_data":"2024-05-19T19:23:08Z","league":{"id":1,"name":"Arsenal","created":"2023-07-05T15:13:48.564786Z","closed":false,"max_entries":null,"league_type":"s","scoring":"c","admin_entry":null,"start_event":1,"code_privacy":"p","has_cup":true,"cup_league":2361048,"rank":null},"standings":{"has_next":true,"page":1,"results":[{"id":32695543,"event_total":77,"player_name":"Ahmed Habib","rank":1,"last_rank":1,"rank_sort":1,"total":2714,"entry":4275850,"entry_name":"Ahmed Habib"},{"id":51772282,"event_total":71,"player_name":"Sean Webb","rank":2,"last_rank":2,"rank_sort":2,"total":2705,"entry":6413873,"entry_name":"The Invincibles"},{"id":4259538,"event_total":85,"player_name":"Espen NT","rank":3,"last_rank":4,"rank_sort":3,"total":2697,"entry":679086,"entry_name":"Katt>Bikkje"},{"id":1801175,"event_total":72,"player_name":"Sherif Khalifa","rank":4,"last_rank":3,"rank_sort":4,"total":2693,"entry":297786,"entry_name":"Groß Returns"},{"id":196,"event_total":74,"player_name":"Cameron Scott","rank":5,"last_rank":5,"rank_sort":5,"total":2686,"entry":40,"entry_name":"Cobra Kai"},{"id":41,"event_total":78,"player_name":"Lee Byron","rank":5,"last_rank":6,"rank_sort":6,"total":2686,"entry":9,"entry_name":"Gunners XI"},{"id":45600427,"event_total":86,"player_name":"Sean Fahey","rank":7,"last_rank":15,"rank_sort":7,"total":2680,"entry":5762128,"entry_name":"Bilbos Boys"},{"id":53761871,"event_total":81,"player_name":"Dylan Sauven","rank":8,"last_rank":11,"rank_sort":8,"total":2680,"entry":6607306,"entry_name":"Aston Drillas"},{"id":3990605,"event_total":85,"player_name":"Ian Palmeri","rank":9,"last_rank":14,"rank_sort":9,"total":2679,"entry":637313,"entry_name":"Palmeri's Players"},{"id":221102,"event_total":74,"player_name":"Alexandre Foing","rank":10,"last_rank":7,"rank_sort":10,"total":2679,"entry":37760,"entry_name":"Red Boules"},{"id":37838274,"event_total":73,"player_name":"Salem Alghaithi 🇦🇪","rank":11,"last_rank":8,"rank_sort":11,"total":2677,"entry":4887309,"entry_name":"Salem1993"},{"id":65429,"event_total":72,"player_name":"Nikolai Henriksen","rank":12,"last_rank":10,"rank_sort":12,"total":2674,"entry":12946,"entry_name":"Dunder Mifflin"},{"id":28142,"event_total":77,"player_name":"Louis Porter","rank":13,"last_rank":13,"rank_sort":13,"total":2674,"entry":5673,"entry_name":"Old Havertz Kai Hard"},{"id":3218862,"event_total":86,"player_name":"Thomas McLaughlin","rank":14,"last_rank":27,"rank_sort":14,"total":2674,"entry":522641,"entry_name":"Tommys bhoys"},{"id":46439783,"event_total":87,"player_name":"Moussa Bayoko","rank":15,"last_rank":32,"rank_sort":15,"total":2672,"entry":5860038,"entry_name":"AAA"},{"id":38784958,"event_total":102,"player_name":"Vuk Matovic","rank":16,"last_rank":74,"rank_sort":16,"total":2672,"entry":4993343,"entry_name":"Cevucevu"},{"id":34940,"event_total":78,"player_name":"Mani Miln","rank":17,"last_rank":17,"rank_sort":17,"total":2672,"entry":7019,"entry_name":"kmkh"},{"id":5671708,"event_total":78,"player_name":"Joseph Lalramnghaka","rank":18,"last_rank":22,"rank_sort":18,"total":2669,"entry":900377,"entry_name":"Safe Haven"},{"id":94315,"event_total":73,"player_name":"Andrew Faichney","rank":19,"last_rank":16,"rank_sort":19,"total":2667,"entry":17582,"entry_name":"Narcos Alonso"},{"id":10812805,"event_total":75,"player_name":"Senne Vossen","rank":20,"last_rank":19,"rank_sort":20,"total":2667,"entry":1659310,"entry_name":"Red Ross Rangers"},{"id":642684,"event_total":79,"player_name":"Robert Saganowski","rank":21,"last_rank":30,"rank_sort":21,"total":2665,"entry":109775,"entry_name":"Kristal Pajac"},{"id":1983479,"event_total":111,"player_name":"David Lividikos","rank":22,"last_rank":143,"rank_sort":22,"total":2664,"entry":327544,"entry_name":"Daviour The Saviour"},{"id":59440522,"event_total":79,"player_name":"Peter Hafsmo Stige","rank":23,"last_rank":35,"rank_sort":23,"total":2664,"entry":7159856,"entry_name":"Jada jada"},{"id":8726211,"event_total":73,"player_name":"Michael Boyle","rank":24,"last_rank":23,"rank_sort":24,"total":2663,"entry":1357295,"entry_name":"MagicMikeFC"},{"id":829980,"event_total":80,"player_name":"Christian Trinidad","rank":25,"last_rank":39,"rank_sort":25,"total":2660,"entry":140649,"entry_name":"Azkals"},{"id":33169113,"event_total":78,"player_name":"Tony Ghosh","rank":26,"last_rank":45,"rank_sort":26,"total":2659,"entry":4332565,"entry_name":"Gunnersaurus"},{"id":5860733,"event_total":74,"player_name":"Kittikorn Nakprasit","rank":27,"last_rank":35,"rank_sort":27,"total":2659,"entry":929279,"entry_name":"Enter Sandman"},{"id":7426233,"event_total":70,"player_name":"Kewin Zygmund","rank":28,"last_rank":28,"rank_sort":28,"total":2657,"entry":1168315,"entry_name":"NEMEZIZ UNITED"},{"id":2030340,"event_total":73,"player_name":"Antti Nieminen","rank":29,"last_rank":38,"rank_sort":29,"total":2657,"entry":335052,"entry_name":"Nurkkajussit"},{"id":293239,"event_total":57,"player_name":"Archie James","rank":30,"last_rank":12,"rank_sort":30,"total":2656,"entry":49588,"entry_name":"Smith Rowe your boat"},{"id":34801910,"event_total":74,"player_name":"Tom Apperley","rank":31,"last_rank":44,"rank_sort":31,"total":2655,"entry":4527609,"entry_name":"Minks XI"},{"id":34132281,"event_total":76,"player_name":"Matthew Wilson","rank":32,"last_rank":49,"rank_sort":32,"total":2655,"entry":4443547,"entry_name":"Mattyfranchise"},{"id":54528,"event_total":86,"player_name":"Mohammed Alawaji","rank":33,"last_rank":82,"rank_sort":33,"total":2654,"entry":10853,"entry_name":"Is Yours Gold ?"},{"id":1391234,"event_total":80,"player_name":"Zakk Glover","rank":34,"last_rank":61,"rank_sort":34,"total":2654,"entry":232535,"entry_name":"Rice & Ings"},{"id":30976339,"event_total":70,"player_name":"Kenneth Foo","rank":35,"last_rank":41,"rank_sort":35,"total":2653,"entry":4068425,"entry_name":"Øde to Jesus"},{"id":860473,"event_total":63,"player_name":"Spencer Toon","rank":36,"last_rank":24,"rank_sort":36,"total":2653,"entry":145670,"entry_name":"Briefcasemiro"},{"id":7072939,"event_total":73,"player_name":"Mahmudul Hasan","rank":37,"last_rank":40,"rank_sort":37,"total":2653,"entry":1114892,"entry_name":"Muntasir XI"},{"id":6195897,"event_total":98,"player_name":"Prerna Bhardwaj","rank":38,"last_rank":164,"rank_sort":38,"total":2652,"entry":981663,"entry_name":"Botman Begins"},{"id":30780657,"event_total":61,"player_name":"Matt Gallant","rank":39,"last_rank":20,"rank_sort":39,"total":2652,"entry":4057294,"entry_name":"Running Rampant"},{"id":246327,"event_total":49,"player_name":"Xingyu Wu","rank":40,"last_rank":9,"rank_sort":40,"total":2652,"entry":5522,"entry_name":"November Rain"},{"id":102103,"event_total":67,"player_name":"Nathan Cole","rank":41,"last_rank":34,"rank_sort":41,"total":2652,"entry":18822,"entry_name":"Forest Glade FC"},{"id":48466,"event_total":85,"player_name":"FPL Pro","rank":42,"last_rank":93,"rank_sort":42,"total":2651,"entry":9681,"entry_name":"The Prodigious Ones"},{"id":157319,"event_total":74,"player_name":"Chris Cecchetto","rank":43,"last_rank":53,"rank_sort":43,"total":2650,"entry":27378,"entry_name":"Artet-Offensive"},{"id":14557364,"event_total":59,"player_name":"Brahim Boubaker","rank":44,"last_rank":21,"rank_sort":44,"total":2650,"entry":8681,"entry_name":"Romário �️"},{"id":7985591,"event_total":62,"player_name":"Farid Kelekun","rank":44,"last_rank":26,"rank_sort":45,"total":2650,"entry":1248870,"entry_name":"Afro Wonderers"},{"id":50165878,"event_total":88,"player_name":"Free Palestine 🇵🇸","rank":44,"last_rank":111,"rank_sort":46,"total":2650,"entry":6266494,"entry_name":"MOHAND"},{"id":18538526,"event_total":85,"player_name":"Ned Thistlethwaite","rank":47,"last_rank":79,"rank_sort":47,"total":2650,"entry":2731913,"entry_name":"Finite Jest"},{"id":3357248,"event_total":76,"player_name":"Jonathan Raj","rank":48,"last_rank":63,"rank_sort":48,"total":2650,"entry":544114,"entry_name":"Mo Salad"},{"id":3419,"event_total":74,"player_name":"Tom Webb","rank":49,"last_rank":60,"rank_sort":49,"total":2648,"entry":694,"entry_name":"Shivertz me Timbers"},{"id":2027336,"event_total":59,"player_name":"Adrian Pricopie","rank":50,"last_rank":25,"rank_sort":50,"total":2648,"entry":334568,"entry_name":"Injured Tier-knee"}]}}